<?xml version="1.0" encoding="UTF-8"?>
<svg width="432" height="432" version="1.1" viewBox="0 0 50 50" xmlns="http://www.w3.org/2000/svg">
	<rect x="0" y="0" width="50" height="50" fill="#899" stroke="none"/>
	<rect transform="rotate(-45)" x="-9.5" y="35" width="19" height="40" fill="#688" stroke="none"/>
	<path d="
		m18,18
		h14
		s -0.9 7 0 5
		c2-2 2 3 1 3
		s-3-1-1 6
		c-1 0 -1 0 -6 0
		c-2-0.1 2-2 -1-2
		s-3 0-2 1
		s 1 1-5 1
		v-14
		z"
		fill="#bcc" stroke="#444" stroke-width=".5"/>
<!-- <circle cx="25" cy="25" r="15" fill="none" stroke="#444" stroke-width=".1"/> -->
</svg>
