[gd_scene load_steps=2 format=3 uid="uid://1j57y6h2p887"]

[ext_resource type="Script" path="res://ui/information.gd" id="1_38jnu"]

[node name="Information" type="Button"]
anchors_preset = 10
anchor_right = 1.0
offset_bottom = 8.0
grow_horizontal = 2
text = "ⓘ"
script = ExtResource("1_38jnu")

[node name="Panel" type="Panel" parent="."]
visible = false
top_level = true
layout_mode = 1
anchors_preset = 15
anchor_right = 1.0
anchor_bottom = 1.0
grow_horizontal = 2
grow_vertical = 2

[node name="VBoxContainer" type="VBoxContainer" parent="Panel"]
layout_mode = 1
anchors_preset = 15
anchor_right = 1.0
anchor_bottom = 1.0
grow_horizontal = 2
grow_vertical = 2
theme_override_constants/separation = 0

[node name="ScrollContainer" type="ScrollContainer" parent="Panel/VBoxContainer"]
layout_mode = 2
size_flags_vertical = 3
horizontal_scroll_mode = 0

[node name="Label" type="Label" parent="Panel/VBoxContainer/ScrollContainer"]
unique_name_in_owner = true
modulate = Color(0.941176, 0.941176, 0.941176, 1)
custom_minimum_size = Vector2(50, 50)
layout_mode = 2
size_flags_horizontal = 3
size_flags_vertical = 3
theme_override_constants/line_spacing = -1
autowrap_mode = 3

[node name="Button" type="Button" parent="Panel/VBoxContainer"]
layout_mode = 2
size_flags_vertical = 8
text = "BACK"

[connection signal="pressed" from="." to="." method="_on_pressed"]
[connection signal="pressed" from="Panel/VBoxContainer/Button" to="." method="_on_button_pressed"]
